<?xml version="1.0" encoding="utf-8"?>
<!-- Generator: Adobe Illustrator 19.2.1, SVG Export Plug-In . SVG Version: 6.00 Build 0)  -->
<svg version="1.1" id="Capa_1" xmlns="http://www.w3.org/2000/svg" xmlns:xlink="http://www.w3.org/1999/xlink" x="0px" y="0px"
	 viewBox="0 0 51.6 100" style="enable-background:new 0 0 51.6 100;" xml:space="preserve">
<style type="text/css">
	.st0{fill:none;stroke:#3390CE;stroke-width:5.7523;stroke-linecap:round;stroke-linejoin:round;stroke-miterlimit:10;}
</style>
<polyline class="st0" points="48.4,4.6 2.9,50 48.2,95.3 "/>
</svg>
