<?xml version="1.0" encoding="utf-8"?>
<!-- Generator: Adobe Illustrator 19.2.1, SVG Export Plug-In . SVG Version: 6.00 Build 0)  -->
<svg version="1.1" id="Capa_1" xmlns="http://www.w3.org/2000/svg" xmlns:xlink="http://www.w3.org/1999/xlink" x="0px" y="0px"
	 viewBox="0 0 42 32" style="enable-background:new 0 0 42 32;" xml:space="preserve">
<style type="text/css">
	.st0{fill:none;stroke:#000000;stroke-width:3;stroke-linecap:round;stroke-linejoin:round;stroke-miterlimit:10;}
	.st1{fill:none;stroke:#000000;stroke-width:3;stroke-miterlimit:10;}
</style>
<polyline class="st0" points="14.1,19.2 20.6,12.7 27.1,19.3 "/>
<path class="st1" d="M34.5,28.9H7.5c-2.7,0-4.8-2.2-4.8-4.8V7.9c0-2.7,2.2-4.8,4.8-4.8h27.1c2.7,0,4.8,2.2,4.8,4.8v16.1
	C39.4,26.7,37.2,28.9,34.5,28.9z"/>
</svg>
