<?xml version="1.0" encoding="utf-8"?>
<!-- Generator: Adobe Illustrator 22.0.1, SVG Export Plug-In . SVG Version: 6.00 Build 0)  -->
<svg version="1.1" id="Capa_1" xmlns="http://www.w3.org/2000/svg" xmlns:xlink="http://www.w3.org/1999/xlink" x="0px" y="0px"
	 viewBox="0 0 440.5 53.6" style="enable-background:new 0 0 440.5 53.6;" xml:space="preserve">
<style type="text/css">
	.st0{fill:#0277BD;}
</style>
<g>
	<g>
		<path class="st0" d="M130.5,13h-20.3c-4.6,0-8.3,3.7-8.3,8.3v9.2c0,4.6,3.7,8.3,8.3,8.3h20.3c0.2,0,0.4-0.1,0.6-0.3
			c0.2-0.2,0.3-0.4,0.3-0.6v-4.4c0-0.5-0.4-0.9-0.9-0.9h-17.3c-1.8,0-3.3-1.5-3.3-3.3v-6.8c0-1.8,1.5-3.3,3.3-3.3h17.3
			c0.5,0,0.9-0.4,0.9-0.9v-4.4c0-0.2-0.1-0.4-0.3-0.6C130.9,13.2,130.7,13,130.5,13z"/>
	</g>
	<g>
		<path class="st0" d="M98.7,13H78.4c-4.6,0-8.3,3.7-8.3,8.3v9.2c0,4.6,3.7,8.3,8.3,8.3h20.3c0.2,0,0.4-0.1,0.6-0.3s0.3-0.4,0.3-0.6
			v-4.4c0-0.5-0.4-0.9-0.9-0.9H81.4c-1.8,0-3.3-1.5-3.3-3.3v-0.6h19.2c0.5,0,0.9-0.4,0.9-0.9V24c0-0.5-0.4-0.9-0.9-0.9H78v-0.6
			c0-1.8,1.5-3.3,3.3-3.3h17.3c0.5,0,0.9-0.4,0.9-0.9v-4.4c0-0.2-0.1-0.4-0.3-0.6C99.1,13.2,98.9,13,98.7,13z"/>
	</g>
	<g>
		<path class="st0" d="M299.2,13h-20.3c-4.6,0-8.3,3.7-8.3,8.3v9.2c0,4.6,3.7,8.3,8.3,8.3h20.3c0.2,0,0.4-0.1,0.6-0.3
			s0.3-0.4,0.3-0.6v-4.4c0-0.5-0.4-0.9-0.9-0.9h-17.3c-1.8,0-3.3-1.5-3.3-3.3v-0.6h19.2c0.5,0,0.9-0.4,0.9-0.9V24
			c0-0.5-0.4-0.9-0.9-0.9h-19.3v-0.6c0-1.8,1.5-3.3,3.3-3.3h17.3c0.5,0,0.9-0.4,0.9-0.9v-4.4c0-0.2-0.1-0.4-0.3-0.6
			C299.6,13.1,299.4,13,299.2,13z"/>
	</g>
	<g>
		<path class="st0" d="M35.1,13H14.8c-4.6,0-8.3,3.7-8.3,8.3v9.2c0,4.6,3.7,8.3,8.3,8.3h20.3c0.2,0,0.4-0.1,0.6-0.3
			c0.2-0.2,0.3-0.4,0.3-0.6v-4.4c0-0.5-0.4-0.9-0.9-0.9H17.7c-1.8,0-3.3-1.5-3.3-3.3v-0.6h19.2c0.5,0,0.9-0.4,0.9-0.9V24
			c0-0.5-0.4-0.9-0.9-0.9H14.4v-0.6c0-1.8,1.5-3.3,3.3-3.3H35c0.5,0,0.9-0.4,0.9-0.9v-4.4c0-0.2-0.1-0.4-0.3-0.6
			C35.5,13.1,35.3,13,35.1,13z"/>
	</g>
	<g>
		<path class="st0" d="M66.9,32.6H49.5c-1.8,0-3.3-1.5-3.3-3.3V13.9c0-0.5-0.4-0.9-0.9-0.9h-6.2c-0.5,0-0.9,0.4-0.9,0.9v16.6
			c0,4.6,3.7,8.3,8.3,8.3h20.3c0.5,0,0.9-0.4,0.9-0.9v-4.4C67.7,33,67.3,32.6,66.9,32.6z"/>
	</g>
	<g>
		<path class="st0" d="M332.7,13h-6.2c-0.5,0-0.9,0.4-0.9,0.9v14.7c0,0.4-0.4,0.8-0.8,0.8c-0.3,0-0.5-0.2-0.7-0.4l-6.6-11.7
			c-1.5-2.7-4.2-4.3-7.3-4.3c-4.6,0-8.3,3.7-8.3,8.3v16.6c0,0.5,0.4,0.9,0.9,0.9h6.2c0.5,0,0.9-0.4,0.9-0.9V23.2
			c0-0.4,0.4-0.8,0.8-0.8c0.3,0,0.5,0.2,0.7,0.4c0.1,0.2,6.6,11.7,6.6,11.7c1.5,2.7,4.2,4.3,7.3,4.3c4.6,0,8.3-3.7,8.3-8.3V13.9
			C333.6,13.4,333.2,13,332.7,13z"/>
	</g>
	<g>
		<path class="st0" d="M187.6,28.7c4.1-0.3,7.3-3.7,7.3-7.8c0-4.3-3.5-7.9-7.9-7.9h-20.7c-0.2,0-0.4,0.1-0.6,0.3
			c-0.2,0.2-0.3,0.4-0.3,0.6v4.4c0,0.2,0.1,0.4,0.3,0.6s0.4,0.3,0.6,0.3H185c1.1,0,2,0.9,2,2s-0.9,2-2,2h-18.7
			c-0.5,0-0.9,0.4-0.9,0.9V38c0,0.5,0.4,0.9,0.9,0.9h6.2c0.5,0,0.9-0.4,0.9-0.9v-9.1h4.6c0.3,0,0.5,0.2,0.7,0.4l10,17.7
			c0.2,0.3,0.4,0.4,0.8,0.4h7.1c0.3,0,0.6-0.2,0.8-0.4c0.2-0.3,0.2-0.6,0-0.9L187.6,28.7z"/>
	</g>
	<g>
		<path class="st0" d="M162.3,13h-23.9h-1.2c-0.3,0-0.6,0.2-0.8,0.4l-2.5,4.4c-0.2,0.3-0.2,0.6,0,0.9s0.4,0.4,0.8,0.4h9.9v18.7
			c0,0.5,0.4,0.9,0.9,0.9h6.2c0.5,0,0.9-0.4,0.9-0.9V19.2h7.4c0.3,0,0.6-0.2,0.8-0.4l2.5-4.4c0.2-0.3,0.2-0.6,0-0.9
			C162.9,13.2,162.6,13,162.3,13z"/>
	</g>
	<g>
		<path class="st0" d="M362.5,18.7l2.5-4.4c0.2-0.3,0.2-0.6,0-0.9c-0.2-0.3-0.4-0.4-0.8-0.4h-23.9h-1.2c-0.3,0-0.6,0.2-0.8,0.4
			l-2.5,4.4c-0.2,0.3-0.2,0.6,0,0.9s0.4,0.4,0.8,0.4h9.9v18.7c0,0.5,0.4,0.9,0.9,0.9h6.2c0.5,0,0.9-0.4,0.9-0.9V19.2h7.4
			C362,19.2,362.3,19,362.5,18.7z"/>
	</g>
	<g>
		<path class="st0" d="M267.9,13h-7.1c-0.3,0-0.6,0.2-0.8,0.4l-9.3,16.4c-0.2,0.3-0.4,0.4-0.7,0.4c-0.3,0-0.5-0.2-0.7-0.4L240,13.4
			c-0.2-0.3-0.4-0.4-0.8-0.4h-7.1c-0.3,0-0.6,0.2-0.8,0.4c-0.2,0.3-0.2,0.6,0,0.9l11.4,20.2c1.5,2.6,4.2,4.2,7.2,4.2
			c3.1,0,5.9-1.7,7.3-4.5l11.3-19.9c0.2-0.3,0.2-0.6,0-0.9C268.5,13.2,268.2,13,267.9,13z"/>
	</g>
	<g>
		<path class="st0" d="M386.7,17.2c-1.5-2.6-4.2-4.2-7.2-4.2c-3.1,0-5.9,1.7-7.3,4.5l-11.3,19.9c-0.2,0.3-0.2,0.6,0,0.9
			c0.2,0.3,0.4,0.4,0.8,0.4h7.1c0.3,0,0.6-0.2,0.8-0.4l9.3-16.4c0.2-0.3,0.4-0.4,0.7-0.4c0.3,0,0.5,0.2,0.7,0.4l6,10.7h-7.8
			c-0.3,0-0.6,0.2-0.8,0.4l-2.5,4.4c-0.2,0.3-0.2,0.6,0,0.9c0.2,0.3,0.4,0.4,0.8,0.4h15.6h5.8c0.3,0,0.6-0.2,0.8-0.4
			c0.2-0.3,0.2-0.6,0-0.9L386.7,17.2z"/>
	</g>
	<g>
		<path class="st0" d="M423.7,23.1c-0.1,0-0.1,0-0.2,0h-13c-1.1,0-2-0.9-2-2s0.9-2,2-2H428c0.3,0,0.6-0.2,0.8-0.4l2.5-4.4
			c0.2-0.3,0.2-0.6,0-0.9c-0.2-0.3-0.4-0.4-0.8-0.4h-22c-4.3,0-7.9,3.5-7.9,7.9c0,4.3,3.4,7.8,7.7,7.9c0.1,0,0.1,0,0.2,0h13.1
			c1.1,0,2,0.9,2,2s-0.9,2-2,2h-17.5l0,0c-0.3,0-0.6,0.2-0.8,0.4l-2.5,4.4c-0.2,0.3-0.2,0.6,0,0.9c0.2,0.3,0.4,0.4,0.8,0.4h22.1
			c4.3,0,7.9-3.5,7.9-7.9C431.4,26.7,428,23.2,423.7,23.1z"/>
	</g>
	<g>
		<path class="st0" d="M221.3,13h-15.7c-4.6,0-8.3,3.7-8.3,8.3v9.2c0,4.6,3.7,8.3,8.3,8.3h15.7c4.6,0,8.3-3.7,8.3-8.3v-9.2
			C229.5,16.7,225.8,13,221.3,13z M218.3,32.6h-3c-0.1,0-0.1,0-0.1,0h-3c-0.1,0-0.1,0-0.1,0h-3.6c-1.8,0-3.3-1.5-3.3-3.3v-6.8
			c0-1.8,1.5-3.3,3.3-3.3h2.4h4.2h1.5h1.5c1.8,0,3.3,1.5,3.3,3.3v6.8C221.6,31.1,220.1,32.6,218.3,32.6z"/>
	</g>
</g>
</svg>
